<svg xmlns="http://www.w3.org/2000/svg" xmlns:xlink="http://www.w3.org/1999/xlink" viewBox="0 0 80 80">
  <defs>
    <style>
      .cls-1, .cls-3 {
        fill: #00243b;
      }

      .cls-1 {
        stroke: #707070;
      }

      .cls-2 {
        clip-path: url(#clip-path);
      }
    </style>
    <clipPath id="clip-path">
      <rect id="Rectangle_1532" data-name="Rectangle 1532" class="cls-1" width="80" height="80" transform="translate(245 260)"/>
    </clipPath>
  </defs>
  <g id="Symbol_46_1" data-name="Symbol 46 – 1" transform="translate(-245 -260)">
    <g id="Mask_Group_4" data-name="Mask Group 4" class="cls-2">
      <g id="icl_soft_1" transform="translate(245 260)">
        <path id="Path_778" data-name="Path 778" class="cls-3" d="M63.389,51.4A14.316,14.316,0,0,0,52.06,56.977L30.083,44.7a14.349,14.349,0,0,0,.8-4.718,14.036,14.036,0,0,0-.814-4.734L52.027,22.99A14.287,14.287,0,1,0,49.07,14.3a13.965,13.965,0,0,0,.814,4.734L27.94,31.3a14.289,14.289,0,1,0,.033,17.359L49.934,60.93A14.295,14.295,0,1,0,63.389,51.4Zm0-46.894a9.817,9.817,0,1,1-9.817,9.817A9.826,9.826,0,0,1,63.389,4.5ZM16.611,49.8a9.817,9.817,0,1,1,9.817-9.817A9.826,9.826,0,0,1,16.611,49.8ZM63.389,75.5a9.817,9.817,0,1,1,9.817-9.817A9.826,9.826,0,0,1,63.389,75.5Z"/>
      </g>
    </g>
  </g>
</svg>
