<svg xmlns="http://www.w3.org/2000/svg" xmlns:xlink="http://www.w3.org/1999/xlink" viewBox="0 0 70 70">
  <defs>
    <style>
      .cls-1, .cls-3 {
        fill: #44ba17;
      }

      .cls-1 {
        stroke: #707070;
      }

      .cls-2 {
        clip-path: url(#clip-path);
      }
    </style>
    <clipPath id="clip-path">
      <rect id="Rectangle_1573" data-name="Rectangle 1573" class="cls-1" width="70" height="70" transform="translate(926 1210)"/>
    </clipPath>
  </defs>
  <g id="Symbol_77_1" data-name="Symbol 77 – 1" transform="translate(-1239 -1253)">
    <g id="Mask_Group_34" data-name="Mask Group 34" class="cls-2" transform="translate(313 43)">
      <g id="icon" transform="translate(926 1210)">
        <path id="Path_1640" data-name="Path 1640" class="cls-3" d="M49.726,0H20.274A5.1,5.1,0,0,0,15.18,5.1V64.906A5.092,5.092,0,0,0,20.274,70H49.726a5.1,5.1,0,0,0,5.094-5.094V5.1A5.1,5.1,0,0,0,49.726,0ZM27.733,3.1h14.54c.367,0,.666.548.666,1.227s-.3,1.23-.666,1.23H27.733c-.37,0-.663-.551-.663-1.23S27.363,3.1,27.733,3.1ZM35,64.967a3.252,3.252,0,1,1,3.247-3.255A3.257,3.257,0,0,1,35,64.967ZM51,53.823H19V8.6H51V53.823Z"/>
      </g>
    </g>
  </g>
</svg>
