<svg xmlns="http://www.w3.org/2000/svg" xmlns:xlink="http://www.w3.org/1999/xlink" viewBox="0 0 400 300">
  <defs>
    <style>
      .cls-1, .cls-5 {
        fill: #fff;
      }

      .cls-1 {
        stroke: #707070;
      }

      .cls-2 {
        clip-path: url(#clip-path);
      }

      .cls-3 {
        fill: #98a2a8;
      }

      .cls-4 {
        fill: #00243b;
      }

      .cls-6 {
        fill: #44ba17;
      }

      .cls-7 {
        fill: #d2d6d9;
      }
    </style>
    <clipPath id="clip-path">
      <rect id="img" class="cls-1" width="400" height="300" transform="translate(-96 272)"/>
    </clipPath>
  </defs>
  <g id="Mask_Group_28" data-name="Mask Group 28" class="cls-2" transform="translate(96 -272)">
    <g id="img_howcon_01" transform="translate(-1100.317 -784.908)">
      <path id="Path_1459" data-name="Path 1459" class="cls-3" d="M127.607,14.947a7.473,7.473,0,0,1,7.474-7.473H299.488a7.472,7.472,0,0,1,7.473,7.474v89.676H217.284V112.1h89.681v7.473a7.473,7.473,0,0,1-7.474,7.473H217.284v7.473h16.093l8.407,22.419h-24.5v7.473h41.1v-7.473h-8.62l-8.407-22.419h58.129a14.947,14.947,0,0,0,14.947-14.947V14.947A14.947,14.947,0,0,0,299.488,0H135.08a14.947,14.947,0,0,0-14.947,14.947V59.785h7.473Zm0,0" transform="translate(914.076 1092.736)"/>
      <path id="Path_1460" data-name="Path 1460" class="cls-4" d="M3.737,427.236H89.677a3.748,3.748,0,0,0,2.642-1.095l26.156-26.156a3.7,3.7,0,0,0,.748-1.095,3.1,3.1,0,0,0,.123-.35,3.763,3.763,0,0,0,.192-.97c0-.079.043-.149.043-.228V274.038a3.736,3.736,0,0,0-3.737-3.737H3.737A3.736,3.736,0,0,0,0,274.037V423.5a3.736,3.736,0,0,0,3.737,3.736Zm89.679-12.756v-13.4h13.4ZM7.473,277.774H112.1V393.607H89.677a3.736,3.736,0,0,0-3.737,3.737v22.42H7.473Zm0,0" transform="translate(1004.317 889.693)"/>
      <path id="Path_1463" data-name="Path 1463" class="cls-3" d="M450.5,195.217h59.785v7.472H450.5Zm0,0" transform="translate(665.912 946.094)"/>
      <path id="Path_1518" data-name="Path 1518" class="cls-3" d="M450.5,195.217h59.785v7.472H450.5Zm0,0" transform="translate(665.912 946.094)"/>
      <path id="Path_1464" data-name="Path 1464" class="cls-3" d="M510.568,270.3h29.889v7.473H510.568Zm0,0" transform="translate(620.792 889.693)"/>
      <path id="Path_1465" data-name="Path 1465" class="cls-3" d="M570.635,120.134H630.42v7.473H570.635Zm0,0" transform="translate(575.672 1002.494)"/>
      <path id="Path_1466" data-name="Path 1466" class="cls-3" d="M660.735,270.3H698.1v7.473H660.735Zm0,0" transform="translate(507.99 889.693)"/>
      <path id="Path_1467" data-name="Path 1467" class="cls-3" d="M510.568,345.384h44.839v7.473H510.568Zm0,0" transform="translate(620.792 833.292)"/>
      <path id="Path_1468" data-name="Path 1468" class="cls-3" d="M720.8,345.384h22.42v7.473H720.8Zm0,0" transform="translate(462.87 833.292)"/>
      <path id="Path_1469" data-name="Path 1469" class="cls-3" d="M720.8,195.217h22.42v7.472H720.8Zm0,0" transform="translate(462.87 946.094)"/>
      <path id="Path_1470" data-name="Path 1470" class="cls-3" d="M450.5,120.134H472.92v7.473H450.5Zm0,0" transform="translate(665.912 1002.494)"/>
      <path id="Path_1471" data-name="Path 1471" class="cls-4" d="M193.194,393.425a3.738,3.738,0,0,0,0-6.4L176.323,376.9V371.54h1.868a13.078,13.078,0,1,0,0-26.156H166.982a13.078,13.078,0,1,0,0,26.156h1.868V376.9l-16.872,10.125a3.738,3.738,0,0,0,0,6.4l16.872,10.122v5.358H153.9a3.736,3.736,0,0,0-3.737,3.737v18.684a3.736,3.736,0,0,0,3.737,3.737H168.85v7.473h-1.868a13.078,13.078,0,1,0,0,26.156h11.21a13.078,13.078,0,1,0,0-26.156h-1.868v-7.473H191.27A3.736,3.736,0,0,0,195,431.328V412.645a3.736,3.736,0,0,0-3.737-3.737H176.323V403.55Zm-26.213-29.358a5.6,5.6,0,0,1,0-11.21h11.21a5.6,5.6,0,1,1,0,11.21Zm11.21,85.941a5.6,5.6,0,1,1,0,11.21H166.982a5.6,5.6,0,1,1,0-11.21Zm9.342-33.629v11.21H157.643V416.378Zm-14.947-19.3-11.422-6.852,11.422-6.852,11.422,6.852Zm0,0" transform="translate(891.516 833.292)"/>
      <path id="Path_1472" data-name="Path 1472" class="cls-3" d="M180.2,60.067h7.473V67.54H180.2Zm0,0" transform="translate(868.956 1047.616)"/>
      <path id="Path_1473" data-name="Path 1473" class="cls-3" d="M240.267,60.067h7.473V67.54h-7.473Zm0,0" transform="translate(823.835 1047.616)"/>
      <path id="Path_1474" data-name="Path 1474" class="cls-3" d="M300.334,60.067h7.473V67.54h-7.473Zm0,0" transform="translate(778.714 1047.616)"/>
      <g id="Group_735" data-name="Group 735" transform="translate(980.291 1088.086)">
        <g id="Group_700" data-name="Group 700" transform="translate(266.289 56.026)">
          <g id="Group_716" data-name="Group 716">
            <path id="Path_1497" data-name="Path 1497" class="cls-3" d="M116.409,237.221a1.642,1.642,0,0,0-2.3.314l-7.255,9.546-2.179-1.907a1.642,1.642,0,1,0-2.163,2.472l3.5,3.065a1.643,1.643,0,0,0,1.081.407,1.213,1.213,0,0,0,.166-.008,1.643,1.643,0,0,0,1.142-.64l8.32-10.948a1.642,1.642,0,0,0-.315-2.3Z" transform="translate(-101.949 -236.886)"/>
          </g>
        </g>
        <g id="Group_734" data-name="Group 734" transform="translate(266.289 34.1)">
          <g id="Group_716-2" data-name="Group 716">
            <path id="Path_1497-2" data-name="Path 1497" class="cls-3" d="M116.409,237.221a1.642,1.642,0,0,0-2.3.314l-7.255,9.546-2.179-1.907a1.642,1.642,0,1,0-2.163,2.472l3.5,3.065a1.643,1.643,0,0,0,1.081.407,1.213,1.213,0,0,0,.166-.008,1.643,1.643,0,0,0,1.142-.64l8.32-10.948a1.642,1.642,0,0,0-.315-2.3Z" transform="translate(-101.949 -236.886)"/>
          </g>
        </g>
        <g id="Group_701" data-name="Group 701" transform="translate(287.168 56.025)">
          <g id="Group_718" data-name="Group 718">
            <path id="Path_1498" data-name="Path 1498" class="cls-3" d="M236.774,236.885h-41.36a1.642,1.642,0,1,0,0,3.284h41.36a1.642,1.642,0,1,0,0-3.284Z" transform="translate(-193.772 -236.885)"/>
          </g>
        </g>
        <g id="Group_732" data-name="Group 732" transform="translate(287.168 34.1)">
          <g id="Group_718-2" data-name="Group 718">
            <path id="Path_1498-2" data-name="Path 1498" class="cls-3" d="M236.774,236.885h-41.36a1.642,1.642,0,1,0,0,3.284h41.36a1.642,1.642,0,1,0,0-3.284Z" transform="translate(-193.772 -236.885)"/>
          </g>
        </g>
        <g id="Group_702" data-name="Group 702" transform="translate(287.168 61.499)">
          <g id="Group_720" data-name="Group 720">
            <path id="Path_1499" data-name="Path 1499" class="cls-3" d="M222.267,260.959H195.414a1.642,1.642,0,0,0,0,3.284h26.852a1.642,1.642,0,0,0,0-3.284Z" transform="translate(-193.772 -260.959)"/>
          </g>
        </g>
        <g id="Group_733" data-name="Group 733" transform="translate(287.168 39.573)">
          <g id="Group_720-2" data-name="Group 720">
            <path id="Path_1499-2" data-name="Path 1499" class="cls-3" d="M222.267,260.959H195.414a1.642,1.642,0,0,0,0,3.284h26.852a1.642,1.642,0,0,0,0-3.284Z" transform="translate(-193.772 -260.959)"/>
          </g>
        </g>
        <g id="Group_703" data-name="Group 703" transform="translate(287.168 66.972)">
          <g id="Group_722" data-name="Group 722">
            <path id="Path_1500" data-name="Path 1500" class="cls-3" d="M228.4,285.033H195.414a1.642,1.642,0,0,0,0,3.284H228.4a1.642,1.642,0,0,0,0-3.284Z" transform="translate(-193.772 -285.033)"/>
          </g>
        </g>
        <g id="Group_731" data-name="Group 731" transform="translate(287.168 45.047)">
          <g id="Group_722-2" data-name="Group 722">
            <path id="Path_1500-2" data-name="Path 1500" class="cls-3" d="M228.4,285.033H195.414a1.642,1.642,0,0,0,0,3.284H228.4a1.642,1.642,0,0,0,0-3.284Z" transform="translate(-193.772 -285.033)"/>
          </g>
        </g>
        <g id="Group_704" data-name="Group 704" transform="translate(287.168 78.359)">
          <g id="Group_724" data-name="Group 724">
            <path id="Path_1501" data-name="Path 1501" class="cls-3" d="M236.774,335.11h-41.36a1.642,1.642,0,0,0,0,3.284h41.36a1.642,1.642,0,1,0,0-3.284Z" transform="translate(-193.772 -335.11)"/>
          </g>
        </g>
        <g id="Group_705" data-name="Group 705" transform="translate(287.168 83.832)">
          <g id="Group_726" data-name="Group 726">
            <path id="Path_1502" data-name="Path 1502" class="cls-3" d="M222.267,359.184H195.414a1.642,1.642,0,0,0,0,3.284h26.852a1.642,1.642,0,0,0,0-3.284Z" transform="translate(-193.772 -359.184)"/>
          </g>
        </g>
        <g id="Group_706" data-name="Group 706" transform="translate(287.168 89.306)">
          <g id="Group_728" data-name="Group 728">
            <path id="Path_1503" data-name="Path 1503" class="cls-3" d="M228.4,383.258H195.414a1.642,1.642,0,0,0,0,3.284H228.4a1.642,1.642,0,0,0,0-3.284Z" transform="translate(-193.772 -383.258)"/>
          </g>
        </g>
        <g id="Group_707" data-name="Group 707" transform="translate(266.289 78.359)">
          <g id="Group_730" data-name="Group 730">
            <path id="Path_1504" data-name="Path 1504" class="cls-3" d="M113.443,335.11h-8.758a2.74,2.74,0,0,0-2.737,2.737v8.758a2.74,2.74,0,0,0,2.737,2.737h8.758a2.74,2.74,0,0,0,2.737-2.737v-8.758a2.74,2.74,0,0,0-2.737-2.737Zm-.547,10.948h-7.664v-7.665H112.9Z" transform="translate(-101.947 -335.11)"/>
          </g>
        </g>
      </g>
      <g id="Group_699" data-name="Group 699" transform="translate(1176.705 1185.952)">
        <g id="Group_696" data-name="Group 696" transform="translate(9.044 9.013)">
          <g id="Group_695" data-name="Group 695">
            <path id="Path_1505" data-name="Path 1505" class="cls-5" d="M55.742,0A55.742,55.742,0,1,1,0,55.742,55.742,55.742,0,0,1,55.742,0Z" transform="translate(-8.44 -8.044)"/>
            <path id="Path_1487" data-name="Path 1487" class="cls-6" d="M78.236,30.754a47.289,47.289,0,1,0,47.289,47.289A47.289,47.289,0,0,0,78.236,30.754Zm20.774,84.7A42.816,42.816,0,0,1,35.422,78.1a41.225,41.225,0,0,1,.253-4.552l.058-.008a8.542,8.542,0,0,1,.169-1.182c.028-.14.028-.282.057-.422a8.331,8.331,0,0,1,.2-1.464,8.2,8.2,0,0,1,.282-1.661,42.748,42.748,0,0,1,76.734-15.369l-.028.028a2.286,2.286,0,0,1,.619,1.07c.648.929,1.267,1.886,1.826,2.871l.057-.057a42.991,42.991,0,0,1,2.533,5.433,39.6,39.6,0,0,1,1.379,4.137c0,.085.028.2.028.282A42.99,42.99,0,0,1,121,77.847a32.223,32.223,0,0,1-.591,7.4,42.575,42.575,0,0,1-21.4,30.206Z" transform="translate(-30.946 -30.754)"/>
            <g id="Group_736" data-name="Group 736">
              <g id="Group_698" data-name="Group 698" transform="translate(-9.072 -9.005)">
                <g id="Group_697" data-name="Group 697">
                  <path id="Path_1488" data-name="Path 1488" class="cls-6" d="M131.688,114.965,103.567,86.873a56.072,56.072,0,0,0,0-61.111l.057-.057c-.028-.028-.028-.057-.057-.085A6.557,6.557,0,0,1,103,24.66a.215.215,0,0,1-.057-.14l-.169-.254c-.337-.534-.76-1.013-1.126-1.52a.759.759,0,0,1-.225-.2c-.085-.112-.2-.254-.282-.366l-.083-.078-.085-.085-.028.028A56.293,56.293,0,1,0,86.9,103.565l28.121,28.121a11.8,11.8,0,0,0,16.664-16.723ZM89.3,96.217c-.929.76-1.914,1.492-2.9,2.224A51.821,51.821,0,1,1,98.472,86.393c-.7.985-1.436,1.97-2.224,2.9-.225.282-.481.534-.7.816-.673.788-1.407,1.576-2.139,2.336-.309.337-.648.648-.985.985-.76.732-1.52,1.436-2.336,2.139C89.831,95.74,89.577,95.993,89.3,96.217Zm1.323,4.729.929-.76c.309-.254.673-.563,1.013-.845.506-.422.985-.845,1.464-1.267.254-.225.481-.451.732-.673.929-.873,1.826-1.745,2.674-2.674.225-.254.451-.481.673-.732.422-.481.845-.961,1.267-1.464l.845-1.013.76-.929,6.221,6.221L96.868,107.14Zm38,27.53a7.322,7.322,0,0,1-10.331.112l-.112-.112-18.13-18.128,10.331-10.331,18.128,18.128A7.323,7.323,0,0,1,128.62,128.477Z" transform="translate(0.028 -0.008)"/>
                </g>
              </g>
            </g>
          </g>
        </g>
      </g>
      <g id="Group_737" data-name="Group 737" transform="translate(1307.212 1243.703)">
        <g id="icl_soft_2" transform="translate(0.006)">
          <g id="Group_313" data-name="Group 313">
            <g id="Group_312" data-name="Group 312">
              <path id="Path_779" data-name="Path 779" class="cls-7" d="M5.9,0H1.19A1.177,1.177,0,0,0,.011,1.177V5.966a1.178,1.178,0,1,0,2.356,0V2.356H5.9A1.178,1.178,0,1,0,5.9,0Z" transform="translate(-0.011)"/>
            </g>
          </g>
          <g id="Group_315" data-name="Group 315" transform="translate(33.13)">
            <g id="Group_314" data-name="Group 314">
              <path id="Path_780" data-name="Path 780" class="cls-7" d="M69.252,0H64.543a1.178,1.178,0,1,0,0,2.356h3.533V5.966a1.178,1.178,0,1,0,2.356,0V1.177A1.177,1.177,0,0,0,69.252,0Z" transform="translate(-63.363)"/>
            </g>
          </g>
          <g id="Group_317" data-name="Group 317" transform="translate(0 33.052)">
            <g id="Group_316" data-name="Group 316">
              <path id="Path_781" data-name="Path 781" class="cls-7" d="M5.9,67.992H2.366V64.38a1.178,1.178,0,1,0-2.356,0v4.789A1.177,1.177,0,0,0,1.189,70.35H5.9a1.178,1.178,0,1,0,0-2.356Z" transform="translate(-0.011 -63.203)"/>
            </g>
          </g>
          <g id="Group_319" data-name="Group 319" transform="translate(33.13 33.052)">
            <g id="Group_318" data-name="Group 318">
              <path id="Path_782" data-name="Path 782" class="cls-7" d="M69.252,63.2a1.177,1.177,0,0,0-1.177,1.177v3.612H64.541a1.178,1.178,0,0,0,0,2.356H69.25a1.177,1.177,0,0,0,1.177-1.177V64.38A1.177,1.177,0,0,0,69.252,63.2Z" transform="translate(-63.363 -63.203)"/>
            </g>
          </g>
        </g>
      </g>
      <path id="Path_1435" data-name="Path 1435" class="cls-3" d="M137.583,98.419a16.242,16.242,0,1,0,16.242,16.242A16.242,16.242,0,0,0,137.583,98.419Zm13.8,15.047H138.778V100.859a13.875,13.875,0,0,1,12.605,12.606Zm-14.993-12.606v13.306l-9.406,9.407a13.849,13.849,0,0,1,9.406-22.713Zm1.194,27.653a13.743,13.743,0,0,1-8.912-3.251l9.406-9.407h13.306a13.871,13.871,0,0,1-13.8,12.658Zm0,0" transform="translate(1189.746 1148.732)"/>
      <g id="Group_738" data-name="Group 738" transform="translate(273.649 -759.509)">
        <path id="Path_1317" data-name="Path 1317" class="cls-3" d="M92.263,169.148h20.9v2.2h-20.9Zm0,0" transform="translate(990.084 1833.929)"/>
        <path id="Path_1318" data-name="Path 1318" class="cls-3" d="M123.017,199.9h16.5v2.2h-16.5Zm0,0" transform="translate(963.731 1807.575)"/>
        <path id="Path_1319" data-name="Path 1319" class="cls-3" d="M92.263,199.9h2.2v2.2h-2.2Zm0,0" transform="translate(990.084 1807.575)"/>
        <path id="Path_1320" data-name="Path 1320" class="cls-3" d="M92.263,230.657h20.9v2.2h-20.9Zm0,0" transform="translate(990.084 1781.222)"/>
        <path id="Path_1321" data-name="Path 1321" class="cls-3" d="M92.263,261.411h20.9v2.2h-20.9Zm0,0" transform="translate(990.084 1754.868)"/>
      </g>
      <g id="Group_739" data-name="Group 739" transform="translate(273.649 -734.521)">
        <path id="Path_1317-2" data-name="Path 1317" class="cls-3" d="M92.263,169.148h20.9v2.2h-20.9Zm0,0" transform="translate(990.084 1833.929)"/>
        <path id="Path_1318-2" data-name="Path 1318" class="cls-3" d="M123.017,199.9h16.5v2.2h-16.5Zm0,0" transform="translate(963.731 1807.575)"/>
        <path id="Path_1319-2" data-name="Path 1319" class="cls-3" d="M92.263,199.9h2.2v2.2h-2.2Zm0,0" transform="translate(990.084 1807.575)"/>
        <path id="Path_1320-2" data-name="Path 1320" class="cls-3" d="M92.263,230.657h20.9v2.2h-20.9Zm0,0" transform="translate(990.084 1781.222)"/>
        <path id="Path_1321-2" data-name="Path 1321" class="cls-3" d="M92.263,261.411h20.9v2.2h-20.9Zm0,0" transform="translate(990.084 1754.868)"/>
      </g>
      <path id="Path_1517" data-name="Path 1517" class="cls-7" d="M353.846,299.854a11.51,11.51,0,0,0-7.724,20.086l-10.913,26.191c-.209-.012-.4-.062-.617-.062a11.41,11.41,0,0,0-6.886,2.333L311.1,337.327a11.548,11.548,0,1,0-21.962,1.19L271.1,351.551a11.429,11.429,0,0,0-5.831-1.634,11.691,11.691,0,1,0,10.795,7.547L294.1,344.43a11.279,11.279,0,0,0,12.721-.7L323.426,354.8a11.35,11.35,0,0,0-.384,2.819,11.553,11.553,0,1,0,19.277-8.529L353.232,322.9c.209.012.4.062.617.062a11.553,11.553,0,1,0,0-23.106Zm-88.57,65.465a3.851,3.851,0,1,1,3.851-3.851A3.851,3.851,0,0,1,265.275,365.319Zm34.658-26.956a3.851,3.851,0,1,1,3.851-3.851,3.851,3.851,0,0,1-3.851,3.851Zm34.658,23.105a3.851,3.851,0,1,1,3.851-3.851,3.851,3.851,0,0,1-3.851,3.851Zm19.254-46.21a3.851,3.851,0,1,1,3.851-3.851,3.851,3.851,0,0,1-3.851,3.851Zm0,0" transform="translate(1038.916 857.497)"/>
    </g>
  </g>
</svg>
